sent	pred	true
['We', 'present', 'a', 'detailed', 'evaluation', 'of', 'MAGEAD', '.']	[3.]	3
['However', ',', 'many', 'languages', 'lack', 'such', 'resources', '.']	[3.]	3
['WiBi', 'is', 'available', 'at', 'http', ':', '//wibitaxonomy.org', '.']	[3.]	3
['It', 'only', 'requires', 'consistency', 'between', 'training', 'and', 'testing', '.']	[3.]	3
['Experimental', 'results', 'show', 'that', 'the', 'task', 'can', 'be', 'automated', '.']	[0.]	0
['Microblogs', 'have', 'recently', 'received', 'widespread', 'interest', 'from', 'NLP', 'researchers', '.']	[3.]	3
['Experiments', 'have', 'been', 'conducted', 'to', 'evaluate', 'the', 'different', 'dependence', 'models', '.']	[3.]	1
['We', 'propose', 'an', 'online', 'learning', 'algorithm', 'based', 'on', 'tensor-space', 'models', '.']	[3.]	2
['Experiments', 'show', 'that', 'we', 'achieve', 'results', 'better', 'than', 'current', 'state-of-art', 'equivalents', '.']	[0.]	0
['These', 'choices', 'should', 'include', 'one', 'correct', 'answer', 'and', 'several', 'plausible', 'distractors', '.']	[3.]	3
['These', 'systems', 'operate', 'on', 'structured', 'verb-argument', 'events', 'produced', 'by', 'an', 'NLP', 'pipeline', '.']	[3.]	3
['We', 'propose', 'three', 'new', 'unsupervised', 'models', 'to', 'discover', 'latent', 'structures', 'in', 'task-oriented', 'dialogues', '.']	[3.]	1
['We', 'evaluate', 'these', 'models', 'using', 'customer', 'agent', 'dialogs', 'from', 'a', 'catalog', 'service', 'domain', '.']	[2.]	2
['Finally', ',', 'it', 'detects', 'errors', 'by', 'applying', 'rules', 'to', 'the', 'mass', 'count', 'distinction', '.']	[3.]	2
['However', ',', 'human', 'perception', 'of', 'these', 'traits', 'is', 'not', 'perfectly', 'aligned', 'with', 'reality', '.']	[3.]	3
['Deceptive', 'reviews', 'detection', 'has', 'attracted', 'significant', 'attention', 'from', 'both', 'business', 'and', 'research', 'communities', '.']	[3.]	3
['We', 'introduce', 'a', 'novel', 'simple', 'and', 'flexible', 'table', 'representation', 'of', 'entities', 'and', 'relations', '.']	[3.]	3
['We', 'evaluate', 'this', 'utility', 'on', 'sentence', 'completion', 'task', 'and', 'report', 'a', 'new', 'state-of-the-art', '.']	[3.]	3
['The', 'system', 'needs', 'expert', 'writings', 'rather', 'than', 'expert', 'raters', 'to', 'build', 'the', 'evaluation', 'model', '.']	[3.]	1
['Finally', ',', 'we', 'generate', 'a', 'natural', 'language', 'summary', 'by', 'applying', 'a', 'template-based', 'NLG', 'framework', '.']	[3.]	2
['This', 'propagation', 'method', 'achieves', 'further', 'improvement', 'over', 'the', 'best', 'results', 'from', 'the', 'previous', 'step', '.']	[3.]	3
['We', 'report', 'a', 'comprehensive', 'evaluation', 'on', 'this', 'system', ',', 'involving', 'both', 'experts', 'and', 'learners', '.']	[3.]	3
['The', 'experimental', 'results', 'show', 'that', 'the', 'self-organizing', 'structure', 'of', '-gram', 'model', 'enhances', 'the', 'basic', 'model', '.']	[0.]	0
['Analysis', 'shows', 'that', 'tuning', 'directly', 'to', 'HTER', 'results', 'in', 'fine-grained', 'corrections', 'to', 'subsequent', 'machine', 'output', '.']	[0.]	0
['Such', 'knowledge', 'can', 'then', 'be', 'used', 'by', 'a', 'topic', 'model', 'to', 'discover', 'more', 'coherent', 'aspects', '.']	[3.]	1
['Many', 'forms', 'of', 'word', 'relatedness', 'have', 'been', 'developed', ',', 'providing', 'different', 'perspectives', 'on', 'word', 'similarity', '.']	[3.]	3
['Experiments', 'on', 'the', 'ChineseEnglish', 'dataset', 'show', 'that', 'agreementbased', 'learning', 'significantly', 'improves', 'both', 'alignment', 'and', 'translation', 'performance', '.']	[0.]	0
['Surprisingly', ',', 'we', 'show', 'that', 'this', 'model', 'can', 'be', 'efficiently', 'integrated', 'directly', 'in', 'the', 'decoding', 'process', '.']	[3.]	0
['This', 'paper', 'describes', 'an', 'algorithm', 'for', 'propagating', 'verb', 'arguments', 'along', 'lexical', 'chains', 'consisting', 'of', 'WordNet', 'relations', '.']	[3.]	1
['Automatic', 'negation', 'scope', 'detection', 'is', 'a', 'task', 'that', 'has', 'been', 'tackled', 'using', 'different', 'classifiers', 'and', 'heuristics', '.']	[3.]	2
['We', 'present', 'a', 'human', 'judgments', 'dataset', 'and', 'an', 'adapted', 'metric', 'for', 'evaluation', 'of', 'Arabic', 'machine', 'translation', '.']	[3.]	3
['Thus', 'the', 'eye-movements', 'provide', 'a', 'window', 'into', 'the', 'rapid', 'mental', 'processes', 'that', 'underlie', 'spoken', 'language', 'comprehension', '.']	[3.]	3
['We', 'propose', 'a', 'cost-effective', 'method', 'of', 'validating', 'and', 'extending', 'knowledge', 'bases', 'using', 'video', 'games', 'with', 'a', 'purpose', '.']	[3.]	2
['Our', 'experiments', 'on', 'TREC', 'and', 'HTRDP', 'collections', 'clearly', 'show', 'that', 'the', 'new', 'approach', 'is', 'both', 'effective', 'and', 'efficient', '.']	[3.]	0
['Successful', 'transfer', 'learning', 'between', 'languages', 'suggests', 'that', 'the', 'learned', 'model', 'is', 'in', 'fact', 'independent', 'of', 'the', 'underlying', 'language', '.']	[3.]	0
['We', 'extend', 'this', 'multitagging', 'approach', 'to', 'the', 'POS', 'level', 'to', 'overcome', 'errors', 'introduced', 'by', 'automatically', 'assigned', 'POS', 'tags', '.']	[3.]	1
['We', 'demonstrate', 'our', 'approach', 'by', 'training', 'a', 'parser', 'whose', 'semantic', 'representation', 'contains', '130', 'predicates', 'from', 'the', 'NELL', 'ontology', '.']	[2.]	2
['By', 'selectively', 'using', 'timelines', 'guided', 'by', 'filtering', ',', 'overall', 'summarization', 'performance', 'is', 'increased', 'by', 'a', 'significant', '5.9', '%', '.']	[2.]	2
['How', 'can', 'we', 'enable', 'computers', 'to', 'automatically', 'answer', 'questions', 'like', '``', 'Who', 'created', 'the', 'character', 'Harry', 'Potter', "''", '?']	[2.]	3
['Relation', 'classification', 'is', 'an', 'important', 'semantic', 'processing', 'task', 'in', 'the', 'field', 'of', 'natural', 'language', 'processing', '(', 'NLP', ')', '.']	[3.]	3
['Parsing', 'is', 'then', 'simply', 'a', 'deterministic', 'search', 'for', 'the', 'most', 'probable', 'category', 'sequence', 'that', 'supports', 'a', 'CCG', 'derivation', '.']	[3.]	3
['However', ',', 'the', 'specificity', 'of', 'vocabulary', 'terms', 'in', 'most', 'ontologies', 'precludes', 'fully-automated', 'machine', 'translation', 'using', 'general-domain', 'lexical', 'resources', '.']	[3.]	3
['This', 'implies', 'that', 'the', 'sentence', 'entropy', 'in', 'dialogue', 'is', 'conditioned', 'on', 'different', 'contexts', 'determined', 'by', 'the', 'speaker', "'s", 'roles', '.']	[3.]	0
['We', 'also', 'propose', 'to', 'use', 'Support', 'Vector', 'Machines', 'to', 'filter', 'out', 'noisy', 'instances', 'that', 'indicates', 'no', 'specific', 'time', 'period', '.']	[3.]	1
['This', 'paper', 'addresses', 'methods', 'for', 'creating', 'a', 'lexicon', 'of', 'such', 'events', ',', 'to', 'support', 'such', 'work', 'on', 'opinion', 'inference', '.']	[3.]	1
['We', 'present', 'a', 'new', 'approach', 'for', 'mapping', 'natural', 'language', 'sentences', 'to', 'their', 'formal', 'meaning', 'representations', 'using', 'string', 'kernel-based', 'classifiers', '.']	[3.]	1
['Existing', 'studies', 'deal', 'with', 'this', 'challenge', 'by', 'employing', 'techniques', ',', 'such', 'as', 'lexical', 'term', 'matching', 'and', 'statistical', 'machine', 'translation', '.']	[3.]	2
['In', 'this', 'paper', ',', 'we', 'mitigate', 'both', 'of', 'these', 'problems', 'by', 'employing', 'distributional', 'word', 'representations', 'gathered', 'from', 'unlabelled', 'data', '.']	[2.]	2
['First', ',', 'the', 'precise', 'formalisms', 'of', 'GPSG', 'might', 'be', 'a', 'direct', 'and', 'fransparent', 'guide', 'for', 'parser', 'design', 'and', 'implementation', '.']	[3.]	3
['The', 'model', 'provides', 'content-dependent', ',', 'hierarchical', 'phrasal', 'reordering', 'with', 'generalization', 'based', 'on', 'features', 'automatically', 'learned', 'from', 'a', 'real-world', 'bitext', '.']	[2.]	3
['A', 'central', 'challenge', 'in', 'semantic', 'parsing', 'is', 'handling', 'the', 'myriad', 'ways', 'in', 'which', 'knowledge', 'base', 'predicates', 'can', 'be', 'expressed', '.']	[3.]	3
['Therefore', 'our', 'method', ',', 'which', 'employs', 'less', 'domain', 'specific', 'knowledge', ',', 'is', 'both', 'simpler', 'and', 'more', 'extensible', 'than', 'previous', 'approaches', '.']	[3.]	3
['State-of-the-art', 'sequence', 'labeling', 'systems', 'traditionally', 'require', 'large', 'amounts', 'of', 'taskspecific', 'knowledge', 'in', 'the', 'form', 'of', 'handcrafted', 'features', 'and', 'data', 'pre-processing', '.']	[2.]	3
['Thus', ',', 'domain', 'adaptation', 'for', 'sentiment', 'classification', 'algorithms', 'are', 'highly', 'desirable', 'to', 'reduce', 'the', 'domain', 'discrepancy', 'and', 'manual', 'labeling', 'costs', '.']	[3.]	3
['We', 'show', 'that', 'classifiers', 'using', 'these', 'representations', 'have', 'competitive', 'performance', 'compared', 'with', 'the', 'state', 'of', 'the', 'art', 'in', 'idiom', 'token', 'classification', '.']	[0.]	0
['The', 'challenge', 'with', 'regard', 'to', 'copying', 'in', 'Seq2Seq', 'is', 'that', 'new', 'machinery', 'is', 'needed', 'to', 'decide', 'when', 'to', 'perform', 'the', 'operation', '.']	[3.]	1
['In', 'addition', ',', 'we', 'explore', 'methods', 'to', 'improve', 'phrase', 'structure', 'parsing', 'for', 'learner', 'English', '(', 'achieving', 'an', 'F-measure', 'of', '0.878', ')', '.']	[2.]	1
['In', 'order', 'to', 'retrieve', 'extractionrelevant', 'segments', 'from', 'documents', ',', 'we', 'introduce', 'a', 'method', 'to', 'use', 'HMMs', 'to', 'model', 'and', 'retrieve', 'segments', '.']	[2.]	1
['These', 'results', ',', 'by', 'drawing', 'on', 'facts', 'in', 'two', 'very', 'different', 'languages', ',', 'demonstrate', 'the', 'cross-linguistic', 'applicability', 'of', 'the', 'centering', 'framework', '.']	[3.]	2
['In', 'particular', ',', 'the', 'proposed', 'approach', 'unifies', 'intra-', 'and', 'inter-sentence', 'cases', 'by', 'treating', 'the', 'immediately', 'preceding', 'sentence', 'as', 'a', 'special', 'constituent', '.']	[3.]	2
['In', 'this', 'paper', ',', 'we', 'present', 'a', 'new', 'approach', 'for', 'word', 'sense', 'disambiguation', '(', 'WSD', ')', 'using', 'an', 'exemplar-based', 'learning', 'algorithm', '.']	[2.]	2
['We', 'create', 'two', 'new', 'data', 'sets', 'for', 'this', 'paradigm', 'derived', 'from', 'the', 'collectible', 'trading', 'card', 'games', 'Magic', 'the', 'Gathering', 'and', 'Hearthstone', '.']	[3.]	3
['Linguistics', 'studies', 'have', 'shown', 'that', 'action', 'verbs', 'often', 'denote', 'some', 'Change', 'of', 'State', '(', 'CoS', ')', 'as', 'the', 'result', 'of', 'an', 'action', '.']	[0.]	0
['Experimental', 'results', 'demonstrate', 'that', 'the', 'distributional', 'similarity', 'based', 'models', 'can', 'significantly', 'outperform', 'their', 'baseline', 'systems', 'in', 'the', 'web', 'query', 'spelling', 'correction', 'task', '.']	[0.]	0
['To', 'tackle', 'this', 'issue', 'we', 'propose', 'an', 'online', 'framework', 'for', 'adaptive', 'QE', 'that', 'targets', 'reactivity', 'and', 'robustness', 'to', 'user', 'and', 'domain', 'changes', '.']	[1.]	1
['In', 'order', 'to', 'increase', 'the', 'coverage', ',', 'a', 'larger', 'set', 'of', 'verb', 'senses', 'were', 'automatically', 'associated', 'with', 'the', 'existing', 'patterns', 'from', 'VerbNet', '.']	[1.]	1
['We', 'show', 'the', 'robustness', 'of', 'the', 'Siamese', 'CBOW', 'model', 'by', 'evaluating', 'it', 'on', '20', 'datasets', 'stemming', 'from', 'a', 'wide', 'variety', 'of', 'sources', '.']	[2.]	2
['The', 'contextual', 'and', 'grammatical', 'features', 'are', 'extracted', 'from', 'a', 'word', 'association', 'graph', 'built', 'by', 'using', 'a', 'large', 'unlabeled', 'social', 'media', 'text', 'corpus', '.']	[2.]	3
['We', 'propose', 'WIDL-expressions', 'as', 'a', 'flexible', 'formalism', 'that', 'facilitates', 'the', 'integration', 'of', 'a', 'generic', 'sentence', 'realization', 'system', 'within', 'end-to-end', 'language', 'processing', 'applications', '.']	[3.]	3
['Finally', ',', 'we', 'measure', 'the', 'system', "'s", 'impact', 'on', 'the', 'user', "'s", 'language', 'proficiency', 'in', 'both', 'the', 'short', 'and', 'the', 'long', 'term', '.']	[3.]	3
['We', 'investigate', 'how', 'to', 'improve', 'bilingual', 'embedding', 'which', 'has', 'been', 'successfully', 'used', 'as', 'a', 'feature', 'in', 'phrase-based', 'statistical', 'machine', 'translation', '(', 'SMT', ')', '.']	[3.]	0
['Experiments', 'over', 'data', 'from', 'two', 'Coursera', 'MOOCs', 'demonstrate', 'that', 'incorporating', 'the', 'structure', 'of', 'threads', 'into', 'the', 'learning', 'problem', 'leads', 'to', 'better', 'predictive', 'performance', '.']	[0.]	0
['Empirical', 'results', 'show', 'that', 'incorporating', 'keystroke-based', 'features', 'lead', 'to', 'improved', 'performance', 'in', 'deception', 'detection', 'in', 'two', 'different', 'domains', ':', 'online', 'reviews', 'and', 'essays', '.']	[0.]	0
['We', 'use', 'an', 'integer', 'linear', 'programming', '(', 'ILP', ')', 'formulation', 'with', 'various', 'constraints', 'to', 'globally', 'decode', 'the', 'final', 'abbreviation', 'from', 'the', 'generated', 'candidates', '.']	[1.]	1
['Next', ',', 'the', 'model', 'is', 'used', 'to', 'predict', 'aspect', 'ratings', 'in', 'previously', 'unseen', 'texts', ',', 'demonstrating', 'interpretability', 'and', 'explanatory', 'power', 'for', 'its', 'predictions', '.']	[2.]	1
['We', 'present', 'an', 'algorithm', 'which', 'creates', 'a', 'German', 'CCGbank', 'by', 'translating', 'the', 'syntax', 'graphs', 'in', 'the', 'German', 'Tiger', 'corpus', 'into', 'CCG', 'derivation', 'trees', '.']	[3.]	2
['Most', 'sentence', 'embedding', 'models', 'typically', 'represent', 'each', 'sentence', 'only', 'using', 'word', 'surface', ',', 'which', 'makes', 'these', 'models', 'indiscriminative', 'for', 'ubiquitous', 'homonymy', 'and', 'polysemy', '.']	[3.]	2
['First', ',', 'the', 'dependencies', 'within', 'a', 'clause', 'are', 'identified', 'by', 'dividing', 'a', 'sentence', 'into', 'clauses', 'and', 'executing', 'stochastic', 'dependency', 'parsing', 'for', 'each', 'clause', '.']	[3.]	2
['Further', ',', 'the', 'semantics', 'of', 'the', 'derivations', 'can', 'also', 'be', 'systematically', 'reflected', 'in', 'a', 'compositional', 'way', 'by', 'constructing', 'PRED', 'values', 'on', 'the', 'fly', '.']	[3.]	2
['We', 'use', 'a', 'Conditional', 'Random', 'Field', '(', 'CRF', ')', ',', 'a', 'discriminative', 'model', ',', 'which', 'is', 'estimated', 'on', 'a', 'small', 'supervised', 'training', 'set', '.']	[2.]	3
['Mathematical', 'and', 'empirical', 'evidence', 'suggests', 'that', 'the', 'sentence', 'selection', 'step', 'is', 'solved', 'almost', 'exactly', ',', 'thus', 'reducing', 'the', 'problem', 'to', 'the', 'sentence', 'scoring', 'task', '.']	[0.]	0
['Recent', 'work', 'has', 'shown', 'that', 'simple', 'vector', 'subtraction', 'over', 'word', 'embeddings', 'is', 'surprisingly', 'effective', 'at', 'capturing', 'different', 'lexical', 'relations', ',', 'despite', 'lacking', 'explicit', 'supervision', '.']	[2.]	0
['In', 'experiments', 'comparing', 'with', 'crowdsourcing', ',', 'we', 'show', 'that', 'video', 'game-based', 'validation', 'consistently', 'leads', 'to', 'higher-quality', 'annotations', ',', 'even', 'when', 'players', 'are', 'not', 'compensated', '.']	[0.]	0
['Most', 'studies', 'on', 'statistical', 'Korean', 'word', 'spacing', 'do', 'not', 'utilize', 'the', 'information', 'provided', 'by', 'the', 'input', 'sentence', 'and', 'assume', 'that', 'it', 'was', 'completely', 'concatenated', '.']	[3.]	0
['Our', 'experiments', 'show', 'that', 'the', 'models', 'with', 'a', 'character-level', 'decoder', 'outperform', 'the', 'ones', 'with', 'a', 'subword-level', 'decoder', 'on', 'all', 'of', 'the', 'four', 'language', 'pairs', '.']	[0.]	0
['Also', 'this', 'facility', 'increases', 'the', 'efficiency', 'of', 'the', 'book', 'reading', 'machine', 'in', 'that', 'it', 'enables', 'the', 'user', 'to', 'select', 'other', 'ways', 'to', 'organize', 'sentences', '.']	[3.]	1
['In', 'this', 'paper', ',', 'we', 'introduce', 'a', 'significance', 'test', 'for', 'comparing', 'correlations', 'of', 'two', 'metrics', ',', 'along', 'with', 'an', 'open-source', 'implementation', 'of', 'the', 'test', '.']	[2.]	1
['Posing', 'phrase', 'movements', 'as', 'a', 'prediction', 'problem', 'using', 'contextual', 'features', 'modeled', 'by', 'maximum', 'entropy-based', 'classifier', 'is', 'superior', 'to', 'the', 'commonly', 'used', 'lexicalized', 'reordering', 'model', '.']	[2.]	2
['We', 'then', 'describe', 'an', 'incremental', 'parser', 'generator', 'for', 'TALs', 'which', 'responds', 'to', 'modification', 'of', 'the', 'input', 'grammar', 'by', 'updating', 'parse', 'tables', 'built', 'so', 'far', '.']	[3.]	2
['By', 'incorporating', 'complex', 'inferential', 'processes', 'relating', 'utterances', 'into', 'a', 'plan-based', 'framework', ',', 'a', 'formalization', 'and', 'computability', 'not', 'available', 'in', 'the', 'earlier', 'works', 'is', 'provided', '.']	[2.]	2
['We', 'generate', 'two', 'lexicons', 'extracted', 'from', 'a', 'large', 'dataset', 'of', 'tweets', 'using', 'two', 'approaches', 'and', 'evaluate', 'their', 'use', 'in', 'a', 'simple', 'lexicon', 'based', 'method', '.']	[2.]	2
['Our', 'framework', 'first', 'identifies', 'multi-word', 'expressions', 'based', 'on', 'the', 'syntactic', 'structure', 'of', 'the', 'sentence', ';', 'this', 'allows', 'us', 'to', 'recognize', 'both', 'contiguous', 'and', 'non-contiguous', 'phrases', '.']	[3.]	1
['To', 'cope', 'with', 'this', 'challenge', ',', 'we', 'perform', 'successive', 'projections', 'of', 'the', 'full', 'model', 'onto', 'simpler', 'models', 'that', 'operate', 'over', 'equivalence', 'classes', 'of', 'logical', 'forms', '.']	[1.]	1
['We', 'apply', 'Chi', 'Square', '(', 'χ2', ')', 'analysis', 'to', 'a', 'corpus', 'of', 'speech-based', 'computer', 'tutoring', 'dialogues', 'to', 'discover', 'these', 'dependencies', 'both', 'within', 'and', 'across', 'turns', '.']	[1.]	1
['In', 'this', 'study', ',', 'we', 'investigate', 'and', 'analyze', 'three', 'different', 'approaches', ',', 'including', 'a', 'new', 'proposed', 'distributional', 'prototype', 'approach', ',', 'for', 'utilizing', 'the', 'embedding', 'features', '.']	[2.]	1
['The', 'first', 'allows', 'the', 'modeler', 'to', 'specify', 'not', 'only', 'the', 'set', 'of', 'corrupted', 'inputs', 'for', 'each', 'observation', ',', 'but', 'also', 'how', 'bad', 'each', 'one', 'is', '.']	[3.]	3
['While', 'there', 'are', 'a', 'variety', 'of', 'query', 'translation', 'approaches', ',', 'recent', 'research', 'suggests', 'that', 'combining', 'multiple', 'methods', 'into', 'a', 'single', '"structured', 'query"', 'is', 'the', 'most', 'effective', '.']	[2.]	0
['We', 'show', 'that', 'the', 'traditional', 'definition', 'of', 'base-NPs', 'as', 'nonrecursive', 'noun', 'phrases', 'does', 'not', 'apply', 'in', 'Hebrew', ',', 'and', 'propose', 'an', 'alternative', 'definition', 'of', 'Simple', 'NPs', '.']	[0.]	0
['We', 'demonstrate', 'that', 'the', 'semantic', 'connections', 'among', 'words', 'in', 'addition', 'to', 'their', 'context', 'is', 'necessary', 'in', 'forming', 'a', 'semantic', 'network', 'that', 'resembles', 'an', "adult's", 'semantic', 'knowledge', '.']	[0.]	0
['We', 'also', 'analyze', 'the', 'contribution', 'of', 'individual', 'features', 'and', 'the', 'choice', 'of', 'training', 'data', ',', 'language-pair', 'vs.', 'target-language', 'data', ',', 'providing', 'new', 'insights', 'into', 'this', 'task', '.']	[3.]	1
['We', 'formulate', 'the', 'task', 'in', 'a', 'supervised', 'learning', 'to', 'rank', 'framework', ',', 'utilizing', 'both', 'traditional', 'sentence', 'features', 'for', 'generic', 'document', 'summarization', 'and', 'novelly', 'designed', 'task-specific', 'features', '.']	[3.]	2
['We', 'train', 'the', 'system', 'with', 'a', 'learning-to-search', 'algorithm', 'that', 'teaches', 'it', 'which', 'local', 'decisions', '(', 'cluster', 'merges', ')', 'will', 'lead', 'to', 'a', 'high-scoring', 'final', 'coreference', 'partition', '.']	[2.]	3
['We', 'define', 'a', 'prior', 'over', 'model', 'structure', 'using', 'a', 'Markov', 'random', 'field', 'and', 'learn', 'features', 'over', 'sets', 'of', 'monolingual', 'types', 'that', 'are', 'predictive', 'of', 'bilingual', 'redundancy', '.']	[2.]	3
['We', 'compare', 'these', 'curriculum', 'learning', 'proposals', 'in', 'the', 'context', 'of', 'four', 'non-convex', 'models', 'for', 'QA', 'and', 'show', 'that', 'they', 'lead', 'to', 'real', 'improvements', 'in', 'each', 'of', 'them', '.']	[0.]	0
['Effectiveness', 'of', 'our', 'model', 'is', 'demonstrated', 'both', 'theoretically', 'with', 'a', 'proof', 'to', 'show', 'that', 'the', 'solution', 'is', 'a', 'closed-form', 'solution', 'and', 'experimentally', 'with', 'positive', 'results', 'in', 'experiments', '.']	[2.]	0
['In', 'a', 'human', 'evaluation', ',', 'we', 'observe', 'that', 'users', 'are', 'sensitive', 'to', 'inadequate', 'object', 'names-', 'which', 'unfortunately', 'are', 'not', 'unlikely', 'to', 'be', 'generated', 'from', 'low-level', 'visual', 'input', '.']	[3.]	0
['We', 'show', 'that', 'the', 'learned', 'set', 'of', 'emotion', 'indicators', 'yields', 'a', 'substantial', 'improve-ment', 'in', 'F-scores', ',', 'ranging', 'from', '+', '%', '5', 'to', '+', '%', '18', 'over', 'baseline', 'classifiers', '.']	[0.]	0
['Finally', ',', 'we', 'show', 'that', 'a', 'taxonomy', 'built', 'using', 'our', 'algorithm', 'shows', 'a', '23', '%', 'relative', 'F-score', 'improvement', 'over', 'WordNet', '2.1', 'on', 'an', 'independent', 'testset', 'of', 'hypernym', 'pairs', '.']	[3.]	0
['As', 'shown', 'in', 'the', 'reported', 'experiments', ',', 'RMI', 'and', 'RMII', 'can', 'be', 'used', 'reliably', 'to', 'estimate', 'the', 'l1', 'distances', 'between', 'vectors', 'in', 'a', 'vector', 'space', 'of', 'low', 'dimensionality', '.']	[2.]	1
['We', 'train', 'topic', 'models', 'and', 'a', 'rhetorical', 'function', 'classifier', 'to', 'map', 'topic', 'models', 'onto', 'their', 'rhetorical', 'roles', 'in', '2.4', 'million', 'abstracts', 'from', 'the', 'Web', 'of', 'Science', 'from', '1991-2010', '.']	[2.]	1
['In', 'this', 'paper', ',', 'we', 'provide', 'a', 'new', 'method', 'for', 'decoding', 'tree', 'transduction', 'based', 'sentence', 'compression', 'models', 'augmented', 'with', 'language', 'model', 'scores', ',', 'by', 'jointly', 'decoding', 'two', 'components', '.']	[2.]	2
['This', 'study', 'also', 'presents', 'a', 'method', 'for', 'simultaneously', 'inferring', 'latent', 'topics', 'and', 'segmentation', 'boundaries', ',', 'incorporating', 'unsupervised', 'topic', 'segmentation', '(', 'Du', 'et', 'al.', ',', '2013', ')', 'into', 'BiSTM', '.']	[2.]	2
['Experiments', 'on', 'the', 'Prague', 'Dependency', 'Treebank', 'show', 'that', 'systematic', 'transformations', 'of', 'coordinate', 'structures', 'and', 'verb', 'groups', 'result', 'in', 'a', '10', '%', 'error', 'reduction', 'for', 'a', 'deterministic', 'data-driven', 'dependency', 'parser', '.']	[0.]	0
['We', 'show', 'that', 'an', 'approximation', 'to', 'the', 'hierarchical', 'Pitman-Yor', 'language', 'model', 'recovers', 'the', 'exact', 'formulation', 'of', 'interpolated', 'Kneser-Ney', ',', 'one', 'of', 'the', 'best', 'smoothing', 'methods', 'for', 'n-gram', 'language', 'models', '.']	[0.]	0
['The', 'approach', 'employs', 'the', 'stochastic', 'bracketing', 'transduction', 'grammar', '(', 'SBTG', ')', 'model', 'we', 'recently', 'introduced', 'to', 'replace', 'earlier', 'word', 'alignment', 'channel', 'models', ',', 'while', 'retaining', 'a', 'bigram', 'language', 'model', '.']	[2.]	1
['In', 'this', 'study', ',', 'we', 'propose', 'an', 'original', 'and', 'promising', 'framework', 'based', 'on', 'a', 'compact', 'representation', 'of', 'a', 'textual', 'document', ',', 'to', 'solve', 'issues', 'related', 'to', 'topic', 'space', 'granularity', '.']	[2.]	1
['In', 'this', 'paper', ',', 'we', 'present', 'a', 'technique', 'for', 'unsupervised', 'solution', 'post', 'identification', 'leveraging', 'a', 'so', 'far', 'unexplored', 'textual', 'feature', ',', 'that', 'of', 'lexical', 'correlations', 'between', 'problems', 'and', 'solutions', '.']	[2.]	2
['Term', 'clusters', 'are', 'identified', 'by', 'extracting', 'communities', 'in', 'the', 'co-occurrence', 'graph', ',', 'after', 'which', 'the', 'largest', 'is', 'discarded', 'and', 'the', 'remaining', 'words', 'are', 'ranked', 'by', 'centrality', 'within', 'a', 'community', '.']	[2.]	2
['This', 'paper', 'presents', 'a', 'quantitative', 'evaluation', 'of', 'the', 'portability', 'to', 'the', 'stock', 'market', 'domain', 'of', 'the', 'revision', 'rule', 'hierarchy', 'used', 'by', 'the', 'system', 'STREAK', 'to', 'incrementally', 'generate', 'newswire', 'sports', 'summaries', '.']	[3.]	1
['We', 'first', 'show', 'how', 'a', 'structural', 'locality', 'bias', 'can', 'improve', 'the', 'accuracy', 'of', 'state-of-the-art', 'dependency', 'grammar', 'induction', 'models', 'trained', 'by', 'EM', 'from', 'unannotated', 'examples', '(', 'Klein', 'and', 'Manning', ',', '2004', ')', '.']	[2.]	0
['The', 'method', 'provides', 'a', 'procedure', 'to', 'dynamically', 'compute', 'restrictor', ',', 'a', 'minimum', 'set', 'of', 'features', 'involved', 'in', 'an', 'infinite', 'loop', 'for', 'every', 'propagation', 'path', ';', 'thus', 'top-down', 'constraints', 'are', 'maximally', 'propagated', '.']	[3.]	1
['Existing', 'sentence', 'level', 'metrics', 'employ', 'a', 'limited', 'set', 'of', 'features', ',', 'most', 'of', 'which', 'are', 'rather', 'sparse', 'at', 'the', 'sentence', 'level', ',', 'and', 'their', 'intricate', 'models', 'are', 'rarely', 'trained', 'for', 'ranking', '.']	[3.]	1
['When', 'a', 'large-scale', 'incident', 'or', 'disaster', 'occurs', ',', 'there', 'is', 'often', 'a', 'great', 'demand', 'for', 'rapidly', 'developing', 'a', 'system', 'to', 'extract', 'detailed', 'and', 'new', 'information', 'from', 'lowresource', 'languages', '(', 'LLs', ')', '.']	[2.]	1
['Recent', 'work', 'has', 'shown', 'success', 'in', 'using', 'continuous', 'word', 'embeddings', 'learned', 'from', 'unlabeled', 'data', 'as', 'features', 'to', 'improve', 'supervised', 'NLP', 'systems', ',', 'which', 'is', 'regarded', 'as', 'a', 'simple', 'semi-supervised', 'learning', 'mechanism', '.']	[2.]	1
['Through', 'a', 'simple', 'bootstrapping', 'procedure', ',', 'we', 'learn', 'the', 'likelihood', 'of', 'coreference', 'between', 'a', 'pronoun', 'and', 'a', 'candidate', 'noun', 'based', 'on', 'the', 'path', 'in', 'the', 'parse', 'tree', 'between', 'the', 'two', 'entities', '.']	[2.]	2
['In', 'a', 'case', 'study', 'involving', 'English', 'to', 'Bulgarian', 'SMT', ',', 'we', 'show', 'that', 'our', 'method', 'does', 'not', 'only', 'improve', 'translation', 'quality', 'but', 'also', 'outperforms', 'similar', 'methods', 'previously', 'applied', 'to', 'the', 'same', 'task', '.']	[0.]	0
['Expressions', 'of', 'the', 'type', 'UPPER', '@', '->', 'PREFIX', '...', 'SUFFIX', 'may', 'be', 'used', 'to', 'compose', 'a', 'deterministic', 'parser', 'for', 'a', '``', 'local', 'grammar', "''", 'in', 'the', 'sense', 'of', 'Gross', '(', '1989', ')', '.']	[3.]	1
['Experiments', 'on', 'the', 'task', 'of', 'named', 'entity', 'recognition', 'show', 'that', 'each', 'of', 'the', 'proposed', 'approaches', 'can', 'better', 'utilize', 'the', 'word', 'embedding', 'features', ',', 'among', 'which', 'the', 'distributional', 'prototype', 'approach', 'performs', 'the', 'best', '.']	[0.]	2
['We', 'present', 'a', 'new', 'semi-supervised', 'training', 'procedure', 'for', 'conditional', 'random', 'fields', '(', 'CRFs', ')', 'that', 'can', 'be', 'used', 'to', 'train', 'sequence', 'segmentors', 'and', 'labelers', 'from', 'a', 'combination', 'of', 'labeled', 'and', 'unlabeled', 'training', 'data', '.']	[2.]	1
['We', 'present', 'a', 'method', 'for', 'unsupervised', 'topic', 'modelling', 'which', 'adapts', 'methods', 'used', 'in', 'document', 'classification', '(', 'Blei', 'et', 'al.', ',', '2003', ';', 'Griffiths', 'and', 'Steyvers', ',', '2004', ')', 'to', 'unsegmented', 'multi-party', 'discourse', 'transcripts', '.']	[3.]	1
['It', 'differs', 'from', 'recent', 'related', 'work', 'by', 'jointly', 'performing', 'word', 'sense', 'discrimination', 'and', 'embedding', 'learning', ',', 'by', 'non-parametrically', 'estimating', 'the', 'number', 'of', 'senses', 'per', 'word', 'type', ',', 'and', 'by', 'its', 'efficiency', 'and', 'scalability', '.']	[2.]	2
['We', 'present', 'new', 'state-of-the-art', 'results', 'in', 'the', 'word', 'similarity', 'in', 'context', 'task', 'and', 'demonstrate', 'its', 'scalability', 'by', 'training', 'with', 'one', 'machine', 'on', 'a', 'corpus', 'of', 'nearly', '1', 'billion', 'tokens', 'in', 'less', 'than', '6', 'hours', '.']	[3.]	2
['This', 'process', 'models', 'exploratory', 'search', ':', 'a', 'user', 'explores', 'a', 'new', 'topic', 'by', 'submitting', 'a', 'sequence', 'of', 'queries', ',', 'inspecting', 'a', 'summary', 'of', 'the', 'result', 'set', 'and', 'phrasing', 'a', 'new', 'query', 'at', 'each', 'step', '.']	[2.]	2
['The', 'performance', 'of', 'a', 'statistical', 'machine', 'translation', 'system', 'is', 'empirically', 'found', 'to', 'improve', 'by', 'using', 'the', 'conditional', 'probabilities', 'of', 'phrase', 'pairs', 'computed', 'by', 'the', 'RNN', 'Encoder-Decoder', 'as', 'an', 'additional', 'feature', 'in', 'the', 'existing', 'log-linear', 'model', '.']	[2.]	2
['Termed', 'a', 'deep', 'reinforcement', 'relevance', 'network', '(', 'DRRN', ')', ',', 'the', 'architecture', 'represents', 'action', 'and', 'state', 'spaces', 'with', 'separate', 'embedding', 'vectors', ',', 'which', 'are', 'combined', 'with', 'an', 'interaction', 'function', 'to', 'approximate', 'the', 'Q-function', 'in', 'reinforcement', 'learning', '.']	[2.]	3
['In', 'an', 'evaluation', 'involving', 'nearly', 'one', 'million', 'comments', 'collected', 'from', 'the', 'popular', 'SodaHead', 'social', 'polling', 'website', ',', 'we', 'show', 'that', 'a', 'vote', 'prediction', 'system', 'that', 'exploits', 'only', 'textual', 'information', 'can', 'be', 'improved', 'significantly', 'when', 'extended', 'with', 'extra-textual', 'information', '.']	[0.]	0
['Abstract', 'meaning', 'representation', '(', 'AMR', ')', 'is', 'a', 'recent', 'example', 'of', 'one', 'such', 'semantic', 'formalism', 'which', ',', 'similar', 'to', 'a', 'dependency', 'parse', ',', 'utilizes', 'a', 'graph', 'to', 'represent', 'relationships', 'between', 'concepts', '(', 'Banarescu', 'et', 'al.', ',', '2013', ')', '.']	[3.]	1
['We', 'introduce', 'the', 'notion', 'of', '"gender', 'environment"', 'to', 'the', 'computational', 'study', 'of', 'written', 'conversations', ';', 'we', 'interpret', 'this', 'notion', 'as', 'the', 'gender', 'makeup', 'of', 'an', 'email', 'thread', ',', 'and', 'show', 'that', 'some', 'manifestations', 'of', 'power', 'differ', 'significantly', 'between', 'gender', 'environments', '.']	[3.]	0
['By', 'explicitly', 'formulating', 'data', 'selection', 'as', 'a', 'submodular', 'program', ',', 'we', 'obtain', 'fast', 'scalable', 'selection', 'algorithms', 'with', 'mathematical', 'performance', 'guarantees', ',', 'resulting', 'in', 'a', 'unified', 'framework', 'that', 'clarifies', 'existing', 'approaches', 'and', 'also', 'makes', 'both', 'new', 'and', 'many', 'previous', 'approaches', 'easily', 'accessible', '.']	[2.]	2
['In', 'this', 'paper', 'we', 'investigate', 'ChineseEnglish', 'name', 'transliteration', 'using', 'comparable', 'corpora', ',', 'corpora', 'where', 'texts', 'in', 'the', 'two', 'languages', 'deal', 'in', 'some', 'of', 'the', 'same', 'topics', '—', 'and', 'therefore', 'share', 'references', 'to', 'named', 'entities', '—', 'but', 'are', 'not', 'translations', 'of', 'each', 'other', '.']	[3.]	2
['Character-based', 'and', 'word-based', 'methods', 'are', 'two', 'main', 'types', 'of', 'statistical', 'models', 'for', 'Chinese', 'word', 'segmentation', ',', 'the', 'former', 'exploiting', 'sequence', 'labeling', 'models', 'over', 'characters', 'and', 'the', 'latter', 'typically', 'exploiting', 'a', 'transition-based', 'model', ',', 'with', 'the', 'advantages', 'that', 'word-level', 'features', 'can', 'be', 'easily', 'utilized', '.']	[2.]	3
['We', 'annotate', 'a', 'large', 'datasets', 'of', '16k', 'pairs', 'of', 'arguments', 'over', '32', 'topics', 'and', 'investigate', 'whether', 'the', 'relation', '``', 'A', 'is', 'more', 'convincing', 'than', 'B', "''", 'exhibits', 'properties', 'of', 'total', 'ordering', ';', 'these', 'findings', 'are', 'used', 'as', 'global', 'constraints', 'for', 'cleaning', 'the', 'crowdsourced', 'data', '.']	[3.]	0
['In', 'experiments', ',', 'we', 'apply', 'the', 'adaptive', 'joint', 'learning', 'method', 'to', 'the', 'task', 'of', 'learning', 'embeddings', 'of', 'transitive', 'verb', 'phrases', ',', 'and', 'show', 'that', 'the', 'compositionality', 'scores', 'have', 'strong', 'correlation', 'with', 'human', 'ratings', 'for', 'verb-object', 'compositionality', ',', 'substantially', 'outperforming', 'the', 'previous', 'state', 'of', 'the', 'art', '.']	[0.]	0
['Using', 'features', 'capturing', 'non-local', 'dependencies', 'from', 'the', 'same', 'document', ',', 'our', 'approach', 'yields', 'a', '12.6', '%', 'relative', 'error', 'reduction', 'on', 'the', 'F1', 'score', ',', 'over', 'state-of-theart', 'NER', 'systems', 'using', 'local-information', 'alone', ',', 'when', 'compared', 'to', 'the', '9.3', '%', 'relative', 'error', 'reduction', 'offered', 'by', 'the', 'best', 'systems', 'that', 'exploit', 'non-local', 'information', '.']	[2.]	2
